<svg xmlns="http://www.w3.org/2000/svg" width="32" height="32" viewBox="0 0 3332 3332">
  <g transform="translate(0 125)">
    <path d="M3121.53936,950.564681 C3111.58124,928.221499 3089.40363,913.83411 3064.94179,913.847865 L2598.28864,913.847865 L2790.18923,407.320406 C2797.43639,388.285199 2794.89885,366.882097 2783.33641,350.130862 C2771.69004,333.492426 2752.59889,323.454138 2732.32288,323.454138 L2270.85853,323.454138 C2244.99938,323.454138 2221.90338,339.415774 2212.68176,363.4981 L1920.10682,1135.72615 C1912.85965,1154.76136 1915.59482,1176.16446 1927.15636,1192.9157 C1938.7179,1209.66693 1957.69715,1219.70612 1978.28268,1219.70612 L2495.86453,1216.54773 L2222.26794,1943.20462 C2218.74317,1952.70779 2222.46557,1963.56455 2231.29194,1968.83817 C2240.0055,1974.13977 2251.25752,1972.56057 2258.30796,1964.94703 L3110.96234,1017.08954 C3127.43383,998.983809 3131.5226,972.899059 3121.53936,950.564681"/>
    <path d="M721.327328,675.615398 C753.334523,643.439455 753.052072,591.494654 720.82018,559.629136 L545.867549,386.368503 C513.634755,354.558934 461.634005,354.784534 429.824436,386.875652 C397.817241,419.023621 398.099692,470.968421 430.219686,502.833939 L605.285117,676.094572 C637.404209,708.016941 689.488882,707.791341 721.327328,675.615398 Z M1429.73862,385.973252 C1444.6282,371.055692 1453.62422,350.498138 1453.45457,327.966134 L1452.46734,81.8927208 C1452.15692,36.575139 1415.24338,0.084825518 1370.01062,0.281548528 C1324.58024,0.479173937 1288.06195,37.2519384 1288.25868,82.5974945 L1289.2459,328.642031 C1289.44353,373.874787 1326.44189,410.449926 1371.78745,410.253203 C1394.4882,410.168378 1414.84903,400.975638 1429.73862,385.973252 Z M329.262882,1460.56096 C351.878809,1460.47614 372.437266,1451.22655 387.242026,1436.28101 C402.018811,1421.44737 411.014828,1400.88982 411.014828,1378.21704 C410.817203,1332.92743 373.903664,1296.32432 328.586082,1296.49397 L82.2311205,1297.62197 C36.8855643,1297.8196 0.366374046,1334.73314 0.563999455,1379.93792 C0.761624864,1425.2555 37.5623637,1461.83064 82.9079198,1461.63301 L329.262882,1460.56096 Z"/>
    <path d="M3273.2131,1797.46421 L2965.35422,1493.44053 L2587.58739,1938.26735 L2591.11216,2845.77045 L2117.01421,2846.24962 L2118.17019,2178.24867 L1459.7852,2178.24867 L1458.40363,2846.24962 L984.305684,2845.77045 L983.71371,1679.19397 L1787.69538,886.94349 L1876.9201,966.946587 L2026.4368,570.963021 L1925.96008,467.412721 C1896.80176,438.733574 1859.29534,422.71599 1819.33621,415.750371 L1819.33621,415.073571 C1809.74821,413.747947 1799.93462,412.394348 1789.95228,412.394348 C1789.36031,412.394348 1788.40106,412.675897 1787.69629,412.675897 C1786.82186,412.675897 1786.22989,412.394348 1785.46826,412.394348 C1775.37222,412.394348 1765.78513,413.747947 1756.08434,415.073571 L1756.08434,415.750371 C1716.04038,422.71599 1678.53397,441.130346 1649.34767,469.922293 L302.204744,1797.46421 C224.654368,1873.82974 224.964793,1997.40156 302.599995,2073.59834 C341.375183,2111.58393 392.501508,2130.56229 443.402233,2130.56229 C494.331835,2130.39264 545.23256,2111.18868 583.922923,2073.09029 L719.057192,1939.93047 L719.733991,3081.94454 L1787.69538,3080.08379 L2855.48713,3081.94454 L2856.36155,1939.93047 L2991.49582,2073.09029 C3030.15821,2111.18868 3081.08691,2130.39264 3132.10043,2130.56229 C3182.83241,2130.56229 3233.93076,2111.58393 3272.81875,2073.59834 C3350.56495,1997.40247 3350.8474,1873.83064 3273.2131,1797.46421"/>
  </g>
</svg>
