<?xml version="1.0" encoding="UTF-8" standalone="no"?>
<svg
   xmlns:dc="http://purl.org/dc/elements/1.1/"
   xmlns:cc="http://creativecommons.org/ns#"
   xmlns:rdf="http://www.w3.org/1999/02/22-rdf-syntax-ns#"
   xmlns:svg="http://www.w3.org/2000/svg"
   xmlns="http://www.w3.org/2000/svg"
   viewBox="0 0 983.03998 983.03998"
   height="983.03998"
   width="983.03998"
   xml:space="preserve"
   id="svg2"
   version="1.1"><defs
     id="defs6"><clipPath
       id="clipPath24"
       clipPathUnits="userSpaceOnUse"><path
         id="path22"
         d="M 0,737.28 H 737.28 V 0 H 0 Z" /></clipPath></defs><g
     transform="matrix(1.3333333,0,0,-1.3333333,0,983.04)"
     id="g10"><path
       id="path12"
       style="fill:#537c49;fill-opacity:1;fill-rule:nonzero;stroke:none"
       d="M 0,0 H 737.28 V 737.28 H 0 Z" /><g
       transform="translate(728.7371,7.56)"
       id="g14"><path
         id="path16"
         style="fill:#537c49;fill-opacity:1;fill-rule:nonzero;stroke:none"
         d="m 0,0 -721.177,0.983 0.983,721.177 721.177,-0.983 z" /></g><g
       id="g18"><g
         clip-path="url(#clipPath24)"
         id="g20"><g
           transform="translate(483.7189,250.5819)"
           id="g26"><path
             id="path28"
             style="fill:#ffffff;fill-opacity:1;fill-rule:nonzero;stroke:none"
             d="m 0,0 c -3.002,0.825 -15.551,18.221 -5.595,29.646 1.653,1.877 -3.327,7.416 -1.963,7.524 5.438,0.414 8.326,-2.963 9.746,-7.83 C 2.295,27.198 2.377,25.035 2.374,22.851 2.363,15.018 1.533,7.379 0,0 m -30.746,-56.483 c -1.121,0.316 -2.27,0.681 -3.516,1.303 -6.106,3.119 -5.382,-1.852 -8.382,-0.752 -3.024,1.125 3.4,8.089 -5.637,2.205 -8.995,-5.87 -6.559,0.918 -10.468,10.886 -3.949,9.978 4.541,21.345 11.62,23.91 9.73,3.508 15.771,4.216 20.334,5.337 13.454,3.34 16.309,11.318 18.742,6.457 0.461,-0.91 0.904,-1.774 1.308,-2.59 0.782,-1.452 1.68,-4.394 1.721,-7.296 -5.731,-14.958 -14.559,-28.383 -25.722,-39.46 m -79.008,-32.484 c -10.941,0.015 -21.487,1.622 -31.464,4.551 -1.434,1.172 -2.249,3.128 -1.349,5.473 3.478,9.03 13.798,12.551 21.943,13.324 18.16,1.745 42.003,-11.843 45.8,-9.66 3.812,2.178 11.499,12.148 22.76,11.715 7.686,-0.305 7.628,-1.595 10.207,-2.572 -18.85,-14.34 -42.371,-22.866 -67.897,-22.831 m -15.125,72.998 c -1.544,-2.519 -5.779,-21.344 -8.602,-19.147 -2.837,2.201 1.174,21.837 1.995,23.329 4.431,8.106 13.998,7.692 6.607,-4.182 m 45.755,22.168 c -2.213,-1.965 -7.873,-1.238 -10.701,0.976 -2.81,2.192 1.796,5.82 3.477,5.952 3.77,0.332 9.419,-4.937 7.224,-6.928 m 49.415,-0.261 c -1.206,0.453 -2.27,1.596 -3.182,4.347 -0.908,2.751 1.406,4.315 3.663,3.207 2.296,-1.17 5.272,-4.601 5.27,-6.433 -0.003,-1.834 -4.519,-1.607 -5.751,-1.121 m 4.754,-3.447 c 3.765,0.298 9.41,-4.924 7.198,-6.925 -2.204,-1.981 -7.847,-1.246 -10.675,0.973 -2.814,2.196 1.786,5.815 3.477,5.952 m -120.167,-44.483 c -2.187,-8.556 -4.732,-11.639 -6.902,-14.335 -2.165,-2.728 -10.187,-6.199 -15.271,-5.819 -5.093,0.389 -5.784,13.979 -5.774,20.966 0.003,2.416 -3.423,-4.738 -5.186,9.81 -1.128,9.315 -7.12,-0.961 -7.53,5.251 -0.418,6.198 -3.405,4.967 -6.544,8.846 -3.116,3.874 -7.018,-0.37 -11.388,-2.321 -4.344,-1.924 -2.558,-2.944 -8.731,-0.992 -0.159,0.051 -0.238,0.098 -0.392,0.153 -5.648,13.403 -8.758,28.134 -8.737,43.589 0.005,3.782 0.213,7.497 0.57,11.172 0.212,0.375 0.432,0.734 0.693,1.041 5.931,6.999 5.801,8.639 5.801,8.639 l 6.554,2.26 c 0,0 10.458,-1.626 18.334,-4.603 6.487,-2.444 16.702,-7.963 22.649,-5.548 4.3,1.766 7.666,4.111 7.266,7.691 -0.478,4.489 -4.012,5.561 -8.296,2.54 -1.581,-1.112 -4.934,6.774 -7.573,6.377 -2.637,-0.389 3.251,-9.264 1.014,-9.637 -2.247,-0.38 -6.741,9.252 -7.51,10.812 -0.755,1.549 -4.232,5.417 -7.362,2.474 -6.612,-6.265 -17.336,-5.867 -19.492,-7.478 -6.562,-4.895 -8.283,1.625 -8.132,5.595 0.265,0.907 0.535,1.822 0.826,2.72 2.144,2.357 9.827,3.128 12.462,1.365 2.894,-1.938 4.976,0.491 6.109,1.666 1.15,1.145 0.747,3.005 0.028,4.549 -0.733,1.558 1.452,2.693 2.949,3.092 1.511,0.398 6.504,3.883 8.495,5.046 2.014,1.153 12.367,2.396 17.003,0.069 4.633,-2.341 8.892,-0.441 11.177,2.242 2.866,3.39 6.511,5.974 8.128,6.755 1.625,0.757 -3.985,6.008 -8.612,0.298 -4.639,-5.681 -6.995,-6.205 -9.169,-6.202 -2.176,0.003 -15.097,3.246 -16.686,7.334 -1.57,4.079 4.052,7.129 8.827,9.436 4.772,2.267 17.825,2.218 21.164,2.969 6.786,1.479 15.464,4.875 19.827,1.895 4.346,-2.928 -18.255,-8.043 -10.834,-12.064 2.64,-1.454 14.595,6.853 18.693,8.976 9.635,4.952 -9.329,6.619 -6.855,16.71 2.799,11.408 -23.253,7.03 -36.237,6.077 17.427,11.132 38.115,17.593 60.317,17.563 52.822,-0.072 97.018,-36.724 108.749,-85.946 0.077,-2.432 -0.305,-4.186 -0.553,-5.181 -1.017,-4.033 -8.678,-7.492 -13.111,-0.991 -1.13,1.64 -5.926,6.181 -5.774,-1.576 0.143,-7.762 7.53,-8.565 0.365,-13.213 -7.157,-4.646 -8.467,-3.521 -11.775,-4.69 -3.299,-1.163 -6.511,-9.155 -5.728,-13.429 0.796,-4.276 10.984,-15.959 3.412,-15.469 -1.773,0.135 -15.14,9.288 -17.342,15.169 -2.321,6.188 -4.857,12.246 -6.656,16.915 -1.821,4.649 -6.539,5.844 -10.544,3.113 -3.984,-2.722 1.106,-5.449 -1.768,-11.279 -2.861,-5.818 -4.919,-11.015 -9.118,-6.199 -10.91,12.538 -26.799,6.382 -29.271,20.321 -1.332,7.556 -7.841,6.841 -13.272,11.127 -5.462,4.261 -8.5,6.58 -9.425,3.5 -0.814,-2.702 17.089,-16.936 18.362,-20.578 1.893,-5.409 -5.382,-10.172 -10.706,-11.446 -5.298,-1.263 -7.63,2.996 -12.839,8.437 -5.206,5.429 -7.485,9.315 -7.852,5.052 -0.532,-6.158 4.932,-15.213 10.241,-18.601 4.526,-2.877 9.601,-4.183 8.128,-8.837 -1.481,-4.668 -0.029,-2.027 -5.112,-7.041 -5.091,-5.041 -6.063,-6.662 -5.702,-13.631 0.356,-6.995 -1.463,-7.392 -2.563,-13.203 -1.095,-5.812 -3.611,-0.778 -5.819,-9.303 m -59.98,123.477 c 0.255,0.304 0.484,0.552 0.582,0.677 2.024,2.3 6.048,2.788 8.832,3.218 2.786,0.474 6.5,-0.936 6.947,-2.788 0.474,-1.843 -6.994,-5.214 -8.36,-6.478 -3.871,-3.557 -9.934,-10.803 -13.474,-11.58 -1.159,-0.258 -2.11,-0.081 -2.893,0.308 2.337,5.799 5.127,11.377 8.366,16.643 m 5.756,11.408 c 1.452,2.125 6.272,8.189 6.858,8.955 1.24,1.592 3.697,1.914 5.423,2.217 1.705,0.329 3.979,-0.636 4.25,-1.918 0.293,-1.286 -0.669,-6.26 -1.511,-7.114 -2.359,-2.443 -8.5,-5.888 -11.881,-5.34 -2.615,0.404 -3.637,2.43 -3.139,3.2 M 156.5,26.246 c -19.077,26.836 -105.388,133.991 -266.1,134.21 -160.738,0.219 -247.315,-106.7 -266.494,-133.484 -0.816,-1.146 -1.517,-2.136 -2.091,-2.977 0.572,-0.866 1.27,-1.854 2.083,-3.015 19.106,-26.822 105.391,-133.982 266.129,-134.201 160.712,-0.219 247.315,106.705 266.464,133.475 0.838,1.159 1.526,2.145 2.078,3.009 -0.55,0.843 -1.235,1.835 -2.069,2.983" /></g><g
           transform="translate(97.8945,670.9027)"
           id="g30"><path
             id="path32"
             style="fill:#ffffff;fill-opacity:1;fill-rule:nonzero;stroke:none"
             d="m 0,0 -0.199,-146.214 -24.589,0.034 0.152,111.922 h -0.215 l -17.269,-17.873 -0.224,10e-4 0.035,25.663 22.678,26.494 z" /></g><g
           transform="translate(178.9336,639.0848)"
           id="g34"><path
             id="path36"
             style="fill:#ffffff;fill-opacity:1;fill-rule:nonzero;stroke:none"
             d="M 0,0 -0.017,-12.718 C -0.034,-25.006 -6.729,-33.19 -16.868,-36.421 -4.584,-39.238 1.229,-47.871 1.21,-61.241 L 1.181,-82.809 c -0.027,-20.27 -10.822,-33.41 -35.627,-33.377 -25.02,0.034 -33.849,14.28 -33.819,36.492 l 0.026,19.194 22.44,-0.03 -0.028,-20.926 c -0.012,-8.624 2.991,-14.228 11.409,-14.24 7.537,-0.01 10.992,5.369 11.003,13.14 l 0.033,24.149 c 0.01,7.77 -3.432,11.865 -12.052,11.877 l -10.346,0.014 0.026,18.763 9.276,-0.013 c 7.973,-0.011 13.143,4.086 13.153,11.843 l 0.022,15.744 c 0.011,7.982 -2.774,13.158 -10.536,13.168 C -41.596,13 -44.411,7.832 -44.424,-1.229 l -0.02,-14.876 -22.44,0.03 0.017,12.934 c 0.03,21.569 8.899,36.653 34.342,36.619 C -9.873,33.447 0.028,20.706 0,0" /></g><g
           transform="translate(230.0588,626.0032)"
           id="g38"><path
             id="path40"
             style="fill:#ffffff;fill-opacity:1;fill-rule:nonzero;stroke:none"
             d="M 0,0 0.04,29.581 C 0.053,39.14 4.573,46.08 15.396,46.065 26.758,46.05 29.907,39.731 29.894,30.709 l -0.009,-7.215 -9.38,0.013 0.011,8.032 c 0.005,3.786 -1.253,5.953 -4.953,5.958 -3.697,0.005 -5.233,-2.611 -5.238,-6.308 L 10.28,-1.636 c -0.005,-3.703 1.524,-6.317 5.221,-6.322 3.7,-0.005 4.964,2.337 4.969,5.945 L 20.485,9.262 29.865,9.25 29.851,-1.305 C 29.839,-10.053 26.223,-16.541 15.311,-16.526 4.488,-16.511 -0.013,-9.469 0,0" /></g><g
           transform="translate(265.5567,671.3199)"
           id="g42"><path
             id="path44"
             style="fill:#ffffff;fill-opacity:1;fill-rule:nonzero;stroke:none"
             d="m 0,0 10.283,-0.014 -0.072,-52.759 12.265,-0.017 -0.011,-8.39 -22.548,0.031 z" /></g><g
           transform="translate(292.7824,671.2828)"
           id="g46"><path
             id="path48"
             style="fill:#ffffff;fill-opacity:1;fill-rule:nonzero;stroke:none"
             d="m 0,0 10.283,-0.014 -0.084,-61.149 -10.282,0.014 z" /></g><g
           transform="translate(337.3035,649.7561)"
           id="g50"><path
             id="path52"
             style="fill:#ffffff;fill-opacity:1;fill-rule:nonzero;stroke:none"
             d="m 0,0 h -0.271 l -6.998,-39.673 -4.779,0.007 -7.614,39.693 h -0.179 l -0.054,-39.683 -8.479,0.012 0.083,61.149 11.998,-0.017 6.625,-34.462 h 0.089 l 6.001,34.445 12.987,-0.018 -0.083,-61.149 -9.38,0.013 z" /></g><g
           transform="translate(363.7772,629.428)"
           id="g54"><path
             id="path56"
             style="fill:#ffffff;fill-opacity:1;fill-rule:nonzero;stroke:none"
             d="M 0,0 8.207,-0.011 4.183,24.526 H 4.094 Z M -12.921,-19.373 -1.294,41.76 10.429,41.744 21.982,-19.421 11.428,-19.406 9.55,-8.217 -1.362,-8.202 -3.181,-19.386 Z" /></g><g
           transform="translate(384.3868,671.158)"
           id="g58"><path
             id="path60"
             style="fill:#ffffff;fill-opacity:1;fill-rule:nonzero;stroke:none"
             d="m 0,0 27.327,-0.037 -0.011,-8.39 -8.479,0.011 -0.072,-52.758 -10.369,0.014 0.072,52.759 -8.479,0.011 z" /></g><g
           transform="translate(416.484,671.1143)"
           id="g62"><path
             id="path64"
             style="fill:#ffffff;fill-opacity:1;fill-rule:nonzero;stroke:none"
             d="m 0,0 24.531,-0.034 -0.011,-8.389 -14.248,0.019 -0.024,-17.494 10.189,-0.014 -0.011,-8.302 -10.19,0.014 -0.025,-18.573 14.248,-0.019 -0.011,-8.39 -24.531,0.033 z" /></g><g
           transform="translate(241.2225,543.9352)"
           id="g66"><path
             id="path68"
             style="fill:#ffffff;fill-opacity:1;fill-rule:nonzero;stroke:none"
             d="M 0,0 8.205,-0.011 4.181,24.525 h -0.09 z m -12.924,-19.373 11.628,61.132 11.722,-0.016 11.55,-61.164 -10.551,0.015 -1.878,11.188 -10.911,0.015 -1.82,-11.183 z" /></g><g
           transform="translate(266.0969,540.2935)"
           id="g70"><path
             id="path72"
             style="fill:#ffffff;fill-opacity:1;fill-rule:nonzero;stroke:none"
             d="M 0,0 0.04,29.581 C 0.053,39.14 4.573,46.081 15.396,46.066 26.758,46.05 29.907,39.731 29.894,30.71 l -0.01,-7.216 -9.379,0.013 0.011,8.033 c 0.005,3.786 -1.256,5.952 -4.953,5.957 -3.697,0.005 -5.233,-2.611 -5.238,-6.308 L 10.28,-1.635 c -0.005,-3.704 1.524,-6.317 5.221,-6.322 3.697,-0.005 4.964,2.336 4.969,5.944 L 20.485,9.262 29.865,9.25 29.851,-1.304 C 29.839,-10.052 26.222,-16.541 15.311,-16.526 4.488,-16.511 -0.013,-9.468 0,0" /></g><g
           transform="translate(299.5195,585.613)"
           id="g74"><path
             id="path76"
             style="fill:#ffffff;fill-opacity:1;fill-rule:nonzero;stroke:none"
             d="m 0,0 27.328,-0.037 -0.012,-8.39 -8.479,0.012 -0.072,-52.759 -10.372,0.015 0.072,52.758 -8.476,0.011 z" /></g><g
           transform="translate(331.6167,585.5693)"
           id="g78"><path
             id="path80"
             style="fill:#ffffff;fill-opacity:1;fill-rule:nonzero;stroke:none"
             d="M 0,0 10.283,-0.014 10.2,-61.162 -0.083,-61.148 Z" /></g><g
           transform="translate(368.6169,538.5325)"
           id="g82"><path
             id="path84"
             style="fill:#ffffff;fill-opacity:1;fill-rule:nonzero;stroke:none"
             d="m 0,0 0.045,32.825 c 0.005,3.697 -1.616,6.316 -5.313,6.321 -3.608,0.005 -5.233,-2.61 -5.238,-6.307 L -10.551,0.014 C -10.556,-3.689 -8.938,-6.302 -5.33,-6.307 -1.633,-6.312 -0.005,-3.703 0,0 m -20.832,1.65 0.041,29.581 c 0.013,9.559 4.712,16.499 15.535,16.484 C 5.655,47.7 10.339,40.747 10.326,31.189 L 10.285,1.607 C 10.272,-7.861 5.57,-14.891 -5.341,-14.877 -16.164,-14.862 -20.844,-7.819 -20.832,1.65" /></g><g
           transform="translate(393.4393,562.7545)"
           id="g86"><path
             id="path88"
             style="fill:#ffffff;fill-opacity:1;fill-rule:nonzero;stroke:none"
             d="m 0,0 -0.052,-38.417 -8.658,0.011 0.084,61.148 10.1,-0.014 11.046,-35.1 0.048,35.085 8.569,-0.011 -0.084,-61.148 -9.018,0.012 z" /></g></g></g></g></svg>