<?xml version="1.0" encoding="UTF-8" standalone="no"?>
<svg
   xmlns:dc="http://purl.org/dc/elements/1.1/"
   xmlns:cc="http://creativecommons.org/ns#"
   xmlns:rdf="http://www.w3.org/1999/02/22-rdf-syntax-ns#"
   xmlns:svg="http://www.w3.org/2000/svg"
   xmlns="http://www.w3.org/2000/svg"
   viewBox="0 0 983.03998 983.03998"
   height="983.03998"
   width="983.03998"
   xml:space="preserve"
   id="svg2"
   version="1.1"><defs
     id="defs6"><clipPath
       id="clipPath22"
       clipPathUnits="userSpaceOnUse"><path
         id="path20"
         d="M 0,737.28 H 737.28 V 0 H 0 Z" /></clipPath></defs><g
     transform="matrix(1.3333333,0,0,-1.3333333,0,983.04)"
     id="g10"><path
       id="path12"
       style="fill:#00add8;fill-opacity:1;fill-rule:nonzero;stroke:none"
       d="M 0,0 H 737.28 V 737.28 H 0 Z" /><path
       id="path14"
       style="fill:#00add8;fill-opacity:1;fill-rule:nonzero;stroke:none"
       d="M 729.72,7.56 H 7.56 v 722.16 h 722.16 z" /><g
       id="g16"><g
         clip-path="url(#clipPath22)"
         id="g18"><g
           transform="translate(484.0231,381.7593)"
           id="g24"><path
             id="path26"
             style="fill:#ffffff;fill-opacity:1;fill-rule:nonzero;stroke:none"
             d="m 0,0 c -7.132,3.142 -16.175,2.01 -24.858,-1.508 -32.658,-13.236 -54.882,-17.997 -89.231,-7.242 -21.63,6.771 -41.869,20.951 -65.792,12.317 -15.876,-5.711 -30.668,-11.159 -48.618,-11.02 l -10.368,53.152 H 7.453 Z m -83.491,-157.837 c 0,0 -11.957,-12.287 -31.408,-10.955 -19.495,-1.332 -31.439,10.955 -31.439,10.955 -19.718,19.7 -12.683,44.208 -5.82,56.873 4.24,7.933 34.534,53.429 37.14,57.299 v 0.306 c 0,0 0.045,-0.059 0.119,-0.147 l 0.106,0.147 v -0.306 c 2.536,-3.87 32.878,-49.366 37.118,-57.299 6.873,-12.665 13.886,-37.173 -5.816,-56.873 M 18.231,56.267 c -0.617,0.669 -1.444,1.042 -2.382,1.042 h -263.195 c -0.911,0 -1.748,-0.373 -2.365,-1.042 -0.576,-0.735 -0.805,-1.642 -0.659,-2.489 l 44.219,-267.44 c 0.242,-1.479 1.536,-2.578 3.033,-2.578 h 54.271 l 3.711,-43.558 -22.836,-0.026 53.14,-53.137 53.266,53.257 -22.831,-0.024 3.706,43.488 h 55.226 c 1.523,0 2.796,1.099 3.021,2.625 l 41.37,267.393 c 0.142,0.918 -0.128,1.796 -0.695,2.489" /></g><g
           transform="translate(104.2389,583.8822)"
           id="g28"><path
             id="path30"
             style="fill:#ffffff;fill-opacity:1;fill-rule:nonzero;stroke:none"
             d="m 0,0 c 0.431,8.193 3.882,13.371 11.649,13.371 8.409,0 11.649,-5.178 11.649,-14.675 v -25.46 c 0,-9.272 -3.443,-14.669 -11.86,-14.669 C 3.231,-41.433 0,-35.824 0,-26.764 Z m 11.438,-61.5 c 26.098,0 36.242,14.247 36.242,36.903 V -3.02 c 0,23.946 -9.492,36.026 -27.191,36.026 -10.355,0 -16.607,-4.754 -20.278,-11.87 H 0 v 31.501 c 0,8.853 2.808,15.105 11.649,15.105 8.84,0 11.438,-5.186 11.438,-14.242 v -9.708 h 22.436 v 7.766 c 0,21.582 -7.124,36.674 -34.305,36.674 -25.888,0 -35.599,-16.606 -35.599,-39.473 V -22.44 c 0,-22.66 9.922,-39.06 35.819,-39.06" /></g><g
           transform="translate(216.402,623.5415)"
           id="g32"><path
             id="path34"
             style="fill:#ffffff;fill-opacity:1;fill-rule:nonzero;stroke:none"
             d="m 0,0 v 29.581 c 0,9.559 4.508,16.505 15.331,16.505 11.364,0 14.525,-6.314 14.525,-15.333 V 23.538 H 20.47 v 8.026 c 0,3.789 -1.258,5.954 -4.954,5.954 -3.704,0 -5.236,-2.618 -5.236,-6.315 V -1.625 c 0,-3.697 1.532,-6.312 5.236,-6.312 3.696,0 4.954,2.343 4.954,5.951 V 9.29 h 9.386 V -1.264 c 0,-8.747 -3.614,-15.241 -14.525,-15.241 C 4.508,-16.505 0,-9.469 0,0" /></g><g
           transform="translate(251.8391,668.9066)"
           id="g36"><path
             id="path38"
             style="fill:#ffffff;fill-opacity:1;fill-rule:nonzero;stroke:none"
             d="m 0,0 h 10.279 v -52.762 h 12.266 v -8.387 H 0 Z" /></g><g
           transform="translate(279.0704,668.9066)"
           id="g40"><path
             id="path42"
             style="fill:#ffffff;fill-opacity:1;fill-rule:nonzero;stroke:none"
             d="M 0,0 H 24.531 V -8.39 H 10.28 v -17.495 h 10.196 v -8.297 H 10.28 v -18.58 h 14.251 v -8.387 H 0 Z" /></g><g
           transform="translate(320.3679,627.1494)"
           id="g44"><path
             id="path46"
             style="fill:#ffffff;fill-opacity:1;fill-rule:nonzero;stroke:none"
             d="M 0,0 H 8.205 L 4.144,24.53 H 4.055 Z M -12.897,-19.392 -1.353,41.757 H 10.369 L 22.002,-19.392 H 11.455 L 9.558,-8.208 H -1.353 L -3.16,-19.392 Z" /></g><g
           transform="translate(355.2618,646.1761)"
           id="g48"><path
             id="path50"
             style="fill:#ffffff;fill-opacity:1;fill-rule:nonzero;stroke:none"
             d="M 0,0 V -38.418 H -8.658 V 22.731 H 1.443 L 12.54,-12.354 v 35.085 h 8.562 v -61.149 h -9.015 z" /></g><g
           transform="translate(419.8756,645.5469)"
           id="g52"><path
             id="path54"
             style="fill:#ffffff;fill-opacity:1;fill-rule:nonzero;stroke:none"
             d="m 0,0 -5.772,-37.789 h -9.654 l -8.205,61.149 h 9.923 l 4.781,-38.783 h 0.09 l 5.14,38.783 h 8.384 l 5.682,-38.783 h 0.09 l 4.692,38.783 h 8.658 L 15.873,-37.789 H 6.129 L 0.089,0 Z" /></g><g
           transform="translate(455.7585,627.1494)"
           id="g56"><path
             id="path58"
             style="fill:#ffffff;fill-opacity:1;fill-rule:nonzero;stroke:none"
             d="M 0,0 H 8.205 L 4.151,24.53 H 4.055 Z M -12.897,-19.392 -1.354,41.757 H 10.369 L 22.003,-19.392 H 11.455 L 9.559,-8.208 H -1.354 L -3.16,-19.392 Z" /></g><g
           transform="translate(476.3186,668.9066)"
           id="g60"><path
             id="path62"
             style="fill:#ffffff;fill-opacity:1;fill-rule:nonzero;stroke:none"
             d="M 0,0 H 27.321 V -8.39 H 18.848 V -61.149 H 8.473 V -8.39 H 0 Z" /></g><g
           transform="translate(508.4093,668.9066)"
           id="g64"><path
             id="path66"
             style="fill:#ffffff;fill-opacity:1;fill-rule:nonzero;stroke:none"
             d="M 0,0 H 24.53 V -8.39 H 10.279 V -25.885 H 20.47 v -8.297 H 10.279 v -18.58 H 24.53 v -8.387 H 0 Z" /></g><g
           transform="translate(548.7169,660.5168)"
           id="g68"><path
             id="path70"
             style="fill:#ffffff;fill-opacity:1;fill-rule:nonzero;stroke:none"
             d="m 0,0 v -19.028 h 3.429 c 3.518,0 5.05,1.801 5.05,5.051 v 9.016 C 8.479,-1.622 6.947,0 3.429,0 Z M 0,-24.71 V -52.759 H -10.279 V 8.39 H 4.693 c 10.369,0 14.162,-5.143 14.162,-13.709 v -7.847 c 0,-6.582 -2.35,-10.462 -8.211,-11.815 l 9.833,-27.778 H 9.654 Z" /></g><g
           transform="translate(227.6776,541.4954)"
           id="g72"><path
             id="path74"
             style="fill:#ffffff;fill-opacity:1;fill-rule:nonzero;stroke:none"
             d="M 0,0 H 8.205 L 4.151,24.53 H 4.055 Z M -12.897,-19.391 -1.354,41.757 H 10.37 L 22.003,-19.391 H 11.455 L 9.559,-8.208 H -1.354 L -3.16,-19.391 Z" /></g><g
           transform="translate(262.5719,560.522)"
           id="g76"><path
             id="path78"
             style="fill:#ffffff;fill-opacity:1;fill-rule:nonzero;stroke:none"
             d="M 0,0 V -38.418 H -8.658 V 22.731 H 1.443 l 11.09,-35.085 v 35.085 h 8.569 v -61.149 h -9.016 z" /></g><g
           transform="translate(304.1378,530.491)"
           id="g80"><path
             id="path82"
             style="fill:#ffffff;fill-opacity:1;fill-rule:nonzero;stroke:none"
             d="m 0,0 c 4.239,0 5.867,2.525 5.867,6.222 v 32.017 c 0,3.608 -1.628,6.133 -5.867,6.133 H -4.329 V 0 Z M 16.147,36.346 V 8.029 c 0,-9.38 -3.882,-16.416 -14.883,-16.416 H -14.609 V 52.762 H 1.264 c 11.001,0 14.883,-6.947 14.883,-16.416" /></g><g
           transform="translate(341.0533,535.2695)"
           id="g84"><path
             id="path86"
             style="fill:#ffffff;fill-opacity:1;fill-rule:nonzero;stroke:none"
             d="m 0,0 v 8.208 h 9.565 v -8.387 c 0,-3.428 1.532,-5.411 5.051,-5.411 3.243,0 4.686,2.165 4.686,5.411 v 2.344 c 0,3.518 -1.443,5.682 -4.598,8.658 l -6.046,6.043 c -5.861,5.772 -8.562,9.29 -8.562,16.323 v 2.076 c 0,7.575 4.418,13.439 14.43,13.439 10.279,0 14.334,-5.05 14.334,-13.89 v -4.961 h -9.379 v 5.322 c 0,3.518 -1.622,5.229 -4.865,5.229 -2.887,0 -4.873,-1.622 -4.873,-5.05 v -1.261 c 0,-3.426 1.897,-5.412 4.873,-8.298 l 6.582,-6.493 c 5.587,-5.683 8.294,-9.108 8.294,-15.873 V 0.454 c 0,-8.39 -4.508,-14.341 -14.966,-14.341 C 4.061,-13.887 0,-8.026 0,0" /></g><g
           transform="translate(386.3223,541.4954)"
           id="g88"><path
             id="path90"
             style="fill:#ffffff;fill-opacity:1;fill-rule:nonzero;stroke:none"
             d="M 0,0 H 8.205 L 4.144,24.53 H 4.055 Z M -12.897,-19.391 -1.353,41.757 H 10.37 L 22.003,-19.391 H 11.455 L 9.558,-8.208 H -1.353 L -3.16,-19.391 Z" /></g><g
           transform="translate(421.2162,560.522)"
           id="g92"><path
             id="path94"
             style="fill:#ffffff;fill-opacity:1;fill-rule:nonzero;stroke:none"
             d="M 0,0 V -38.418 H -8.658 V 22.731 H 1.443 L 12.54,-12.354 v 35.085 h 8.562 v -61.149 h -9.015 z" /></g><path
           id="path96"
           style="fill:#ffffff;fill-opacity:1;fill-rule:nonzero;stroke:none"
           d="m 448.174,583.253 h 10.28 v -61.148 h -10.28 z" /><g
           transform="translate(463.2293,583.2526)"
           id="g98"><path
             id="path100"
             style="fill:#ffffff;fill-opacity:1;fill-rule:nonzero;stroke:none"
             d="M 0,0 H 27.327 V -8.39 H 18.855 V -61.148 H 8.479 V -8.39 H 0 Z" /></g><g
           transform="translate(502.0947,541.4954)"
           id="g102"><path
             id="path104"
             style="fill:#ffffff;fill-opacity:1;fill-rule:nonzero;stroke:none"
             d="M 0,0 H 8.204 L 4.143,24.53 H 4.054 Z M -12.898,-19.391 -1.354,41.757 H 10.369 L 22.002,-19.391 H 11.454 L 9.558,-8.208 H -1.354 l -1.807,-11.183 z" /></g><g
           transform="translate(522.6474,583.2526)"
           id="g106"><path
             id="path108"
             style="fill:#ffffff;fill-opacity:1;fill-rule:nonzero;stroke:none"
             d="M 0,0 H 27.327 V -8.39 H 18.855 V -61.148 H 8.479 V -8.39 H 0 Z" /></g><path
           id="path110"
           style="fill:#ffffff;fill-opacity:1;fill-rule:nonzero;stroke:none"
           d="M 554.751,583.253 H 565.03 V 522.105 H 554.751 Z" /><g
           transform="translate(591.8155,536.2628)"
           id="g112"><path
             id="path114"
             style="fill:#ffffff;fill-opacity:1;fill-rule:nonzero;stroke:none"
             d="m 0,0 v 32.828 c 0,3.697 -1.622,6.315 -5.319,6.315 -3.607,0 -5.235,-2.618 -5.235,-6.315 V 0 c 0,-3.697 1.628,-6.312 5.235,-6.312 C -1.622,-6.312 0,-3.697 0,0 m -20.834,1.625 v 29.581 c 0,9.558 4.693,16.505 15.515,16.505 10.912,0 15.599,-6.947 15.599,-16.505 V 1.625 c 0,-9.469 -4.687,-16.505 -15.599,-16.505 -10.822,0 -15.515,7.036 -15.515,16.505" /></g><g
           transform="translate(616.6083,560.522)"
           id="g116"><path
             id="path118"
             style="fill:#ffffff;fill-opacity:1;fill-rule:nonzero;stroke:none"
             d="M 0,0 V -38.418 H -8.658 V 22.731 H 1.443 L 12.54,-12.354 v 35.085 h 8.562 v -61.149 h -9.016 z" /></g></g></g></g></svg>