<?xml version="1.0" encoding="UTF-8" standalone="no"?>
<svg
   xmlns:dc="http://purl.org/dc/elements/1.1/"
   xmlns:cc="http://creativecommons.org/ns#"
   xmlns:rdf="http://www.w3.org/1999/02/22-rdf-syntax-ns#"
   xmlns:svg="http://www.w3.org/2000/svg"
   xmlns="http://www.w3.org/2000/svg"
   viewBox="0 0 983.03998 983.03998"
   height="983.03998"
   width="983.03998"
   xml:space="preserve"
   id="svg2"
   version="1.1"><defs
     id="defs6"><clipPath
       id="clipPath22"
       clipPathUnits="userSpaceOnUse"><path
         id="path20"
         d="M 0,737.28 H 737.28 V 0 H 0 Z" /></clipPath></defs><g
     transform="matrix(1.3333333,0,0,-1.3333333,0,983.04)"
     id="g10"><path
       id="path12"
       style="fill:#fdb713;fill-opacity:1;fill-rule:nonzero;stroke:none"
       d="M 0,0 H 737.28 V 737.28 H 0 Z" /><path
       id="path14"
       style="fill:#fdb713;fill-opacity:1;fill-rule:nonzero;stroke:none"
       d="M 729.72,7.56 H 7.56 v 722.16 h 722.16 z" /><g
       id="g16"><g
         clip-path="url(#clipPath22)"
         id="g18"><g
           transform="translate(368.9215,219.0751)"
           id="g24"><path
             id="path26"
             style="fill:#ffffff;fill-opacity:1;fill-rule:nonzero;stroke:none"
             d="m 0,0 c -30.541,0 -55.3,24.755 -55.3,55.301 0,24.826 16.342,45.823 38.865,52.822 V 87.532 C -28.159,81.545 -36.203,69.376 -36.203,55.301 -36.203,35.304 -20.001,19.099 0,19.099 c 20.001,0 36.203,16.205 36.203,36.202 0,14.115 -8.084,26.305 -19.861,32.28 V 108.15 C 38.91,101.18 55.31,80.163 55.31,55.301 55.31,24.755 30.55,0 0,0 m -7.89,118.808 c 0,3.54 3.553,7.437 7.917,7.437 4.354,0 7.876,-3.897 7.876,-7.437 V 82.302 c 0,-3.522 -3.522,-7.378 -7.876,-7.378 -4.364,0 -7.917,3.856 -7.917,7.378 z m 7.872,42.005 c -58.717,0 -106.318,-47.604 -106.318,-106.326 0,-58.748 47.601,-106.341 106.318,-106.341 58.717,0 106.318,47.593 106.318,106.341 0,58.722 -47.601,106.326 -106.318,106.326" /></g><g
           transform="translate(246.8511,274.4908)"
           id="g28"><path
             id="path30"
             style="fill:#ffffff;fill-opacity:1;fill-rule:nonzero;stroke:none"
             d="m 0,0 c 0,4.821 -4.271,8.726 -8.171,8.726 h -46.562 c -3.927,0 -8.237,-3.905 -8.237,-8.726 0,-4.834 4.31,-8.761 8.237,-8.761 H -8.171 C -4.271,-8.761 0,-4.834 0,0" /></g><g
           transform="translate(553.9754,274.4908)"
           id="g32"><path
             id="path34"
             style="fill:#ffffff;fill-opacity:1;fill-rule:nonzero;stroke:none"
             d="m 0,0 c 0,4.821 -4.271,8.726 -8.172,8.726 h -46.561 c -3.923,0 -8.233,-3.905 -8.233,-8.726 0,-4.834 4.31,-8.761 8.233,-8.761 H -8.172 C -4.271,-8.761 0,-4.834 0,0" /></g><g
           transform="translate(368.948,89.4326)"
           id="g36"><path
             id="path38"
             style="fill:#ffffff;fill-opacity:1;fill-rule:nonzero;stroke:none"
             d="m 0,0 c 4.812,0 8.721,4.271 8.721,8.171 v 46.557 c 0,3.923 -3.909,8.238 -8.721,8.238 -4.829,0 -8.766,-4.315 -8.766,-8.238 V 8.171 C -8.766,4.271 -4.829,0 0,0" /></g><g
           transform="translate(529.5406,182.5739)"
           id="g40"><path
             id="path42"
             style="fill:#ffffff;fill-opacity:1;fill-rule:nonzero;stroke:none"
             d="m 0,0 c 2.391,4.178 0.625,9.694 -2.756,11.631 l -40.411,23.127 c -3.407,1.95 -9.092,0.7 -11.482,-3.487 -2.4,-4.186 -0.612,-9.743 2.796,-11.689 L -11.442,-3.544 C -8.057,-5.482 -2.404,-4.196 0,0" /></g><g
           transform="translate(277.0307,113.8621)"
           id="g44"><path
             id="path46"
             style="fill:#ffffff;fill-opacity:1;fill-rule:nonzero;stroke:none"
             d="m 0,0 c 4.178,-2.39 9.69,-0.625 11.628,2.761 l 23.126,40.407 c 1.95,3.408 0.7,9.095 -3.483,11.486 -4.186,2.399 -9.747,0.607 -11.693,-2.796 L -3.548,11.447 C -5.485,8.066 -4.196,2.399 0,0" /></g><g
           transform="translate(461.186,114.0694)"
           id="g48"><path
             id="path50"
             style="fill:#ffffff;fill-opacity:1;fill-rule:nonzero;stroke:none"
             d="m 0,0 c 4.179,2.403 5.437,8.053 3.496,11.429 l -23.211,40.367 c -1.964,3.403 -7.493,5.191 -11.675,2.788 -4.191,-2.405 -5.446,-8.101 -3.478,-11.509 L -11.662,2.712 C -9.721,-0.665 -4.191,-2.408 0,0" /></g><g
           transform="translate(208.5271,182.2128)"
           id="g52"><path
             id="path54"
             style="fill:#ffffff;fill-opacity:1;fill-rule:nonzero;stroke:none"
             d="m 0,0 c 2.399,-4.174 8.047,-5.433 11.428,-3.488 l 40.359,23.211 c 3.408,1.955 5.204,7.489 2.791,11.667 -2.399,4.192 -8.1,5.446 -11.499,3.491 L 2.716,11.671 C -0.665,9.73 -2.409,4.191 0,0" /></g><g
           transform="translate(368.948,396.5521)"
           id="g56"><path
             id="path58"
             style="fill:#ffffff;fill-opacity:1;fill-rule:nonzero;stroke:none"
             d="m 0,0 c 4.812,0 8.721,4.271 8.721,8.167 v 46.566 c 0,3.927 -3.909,8.233 -8.721,8.233 -4.829,0 -8.766,-4.306 -8.766,-8.233 V 8.167 C -8.766,4.271 -4.829,0 0,0" /></g><g
           transform="translate(262.982,335.1273)"
           id="g60"><path
             id="path62"
             style="fill:#ffffff;fill-opacity:1;fill-rule:nonzero;stroke:none"
             d="m 0,0 c 2.4,4.187 0.634,9.695 -2.756,11.632 l -40.411,23.127 c -3.408,1.954 -9.087,0.704 -11.482,-3.479 -2.4,-4.195 -0.608,-9.742 2.8,-11.697 L -11.438,-3.544 C -8.056,-5.481 -2.399,-4.196 0,0" /></g><g
           transform="translate(429.5846,380.4163)"
           id="g64"><path
             id="path66"
             style="fill:#ffffff;fill-opacity:1;fill-rule:nonzero;stroke:none"
             d="m 0,0 c 4.182,-2.39 9.686,-0.625 11.628,2.756 l 23.126,40.412 c 1.954,3.412 0.704,9.091 -3.478,11.486 -4.191,2.404 -9.747,0.608 -11.698,-2.8 L -3.548,11.447 C -5.486,8.057 -4.2,2.4 0,0" /></g><g
           transform="translate(308.0868,380.3112)"
           id="g68"><path
             id="path70"
             style="fill:#ffffff;fill-opacity:1;fill-rule:nonzero;stroke:none"
             d="M 0,0 C 4.178,2.404 5.437,8.052 3.491,11.433 L -19.719,51.8 c -1.964,3.404 -7.489,5.187 -11.671,2.783 -4.196,-2.404 -5.447,-8.101 -3.483,-11.504 L -11.667,2.721 C -9.717,-0.66 -4.196,-2.408 0,0" /></g><g
           transform="translate(474.768,335.3168)"
           id="g72"><path
             id="path74"
             style="fill:#ffffff;fill-opacity:1;fill-rule:nonzero;stroke:none"
             d="m 0,0 c 2.4,-4.174 8.048,-5.433 11.429,-3.492 l 40.358,23.211 c 3.408,1.959 5.205,7.493 2.801,11.671 -2.413,4.187 -8.101,5.446 -11.509,3.487 L 2.717,11.667 C -0.664,9.725 -2.412,4.186 0,0" /></g><g
           transform="translate(80.3146,650.5194)"
           id="g76"><path
             id="path78"
             style="fill:#ffffff;fill-opacity:1;fill-rule:nonzero;stroke:none"
             d="M 0,0 H 37.977 L 5.173,-126.209 H 29.564 L 61.711,-2.589 V 20.072 L 0,20.072 Z" /></g><g
           transform="translate(223.7864,628.6939)"
           id="g80"><path
             id="path82"
             style="fill:#ffffff;fill-opacity:1;fill-rule:nonzero;stroke:none"
             d="M 0,0 H 8.208 L 4.151,24.527 H 4.061 Z M -12.894,-19.392 -1.35,41.754 H 10.373 L 22.009,-19.392 H 11.455 L 9.561,-8.211 H -1.35 l -1.804,-11.181 z" /></g><g
           transform="translate(250.0223,670.4476)"
           id="g84"><path
             id="path86"
             style="fill:#ffffff;fill-opacity:1;fill-rule:nonzero;stroke:none"
             d="M 0,0 H 24.081 V -8.389 H 10.283 v -17.495 h 10.279 v -8.297 H 10.283 v -26.964 l -10.283,0 z" /></g><g
           transform="translate(278.6011,670.4476)"
           id="g88"><path
             id="path90"
             style="fill:#ffffff;fill-opacity:1;fill-rule:nonzero;stroke:none"
             d="M 0,0 H 24.081 V -8.389 H 10.283 v -17.495 h 10.28 v -8.297 h -10.28 v -26.964 l -10.283,0 z" /></g><g
           transform="translate(327.1169,623.4579)"
           id="g92"><path
             id="path94"
             style="fill:#ffffff;fill-opacity:1;fill-rule:nonzero;stroke:none"
             d="m 0,0 v 32.828 c 0,3.697 -1.625,6.315 -5.321,6.315 -3.608,0 -5.23,-2.618 -5.23,-6.315 V 0 c 0,-3.697 1.622,-6.308 5.23,-6.308 C -1.625,-6.308 0,-3.697 0,0 m -20.834,1.628 v 29.578 c 0,9.558 4.69,16.505 15.513,16.505 10.911,0 15.604,-6.947 15.604,-16.505 V 1.628 c 0,-9.469 -4.693,-16.505 -15.604,-16.505 -10.823,0 -15.513,7.036 -15.513,16.505" /></g><g
           transform="translate(353.5353,662.0582)"
           id="g96"><path
             id="path98"
             style="fill:#ffffff;fill-opacity:1;fill-rule:nonzero;stroke:none"
             d="m 0,0 v -19.028 h 3.425 c 3.518,0 5.05,1.801 5.05,5.051 v 9.016 C 8.475,-1.622 6.943,0 3.425,0 Z M 0,-24.71 V -52.756 H -10.283 V 8.389 H 4.689 c 10.373,0 14.159,-5.142 14.159,-13.708 v -7.847 c 0,-6.583 -2.343,-10.462 -8.208,-11.815 l 9.83,-27.775 H 9.647 Z" /></g><g
           transform="translate(392.5754,617.686)"
           id="g100"><path
             id="path102"
             style="fill:#ffffff;fill-opacity:1;fill-rule:nonzero;stroke:none"
             d="m 0,0 c 4.237,0 5.861,2.529 5.861,6.225 v 32.014 c 0,3.608 -1.624,6.133 -5.861,6.133 H -4.329 V 0 Z M 16.145,36.346 V 8.032 c 0,-9.379 -3.88,-16.416 -14.884,-16.416 H -14.612 V 52.762 H 1.261 c 11.004,0 14.884,-6.947 14.884,-16.416" /></g><g
           transform="translate(424.4906,628.6939)"
           id="g104"><path
             id="path106"
             style="fill:#ffffff;fill-opacity:1;fill-rule:nonzero;stroke:none"
             d="M 0,0 H 8.208 L 4.151,24.527 H 4.061 Z M -12.895,-19.392 -1.35,41.754 H 10.372 L 22.009,-19.392 H 11.454 L 9.561,-8.211 H -1.35 l -1.804,-11.181 z" /></g><g
           transform="translate(461.0091,636.8057)"
           id="g108"><path
             id="path110"
             style="fill:#ffffff;fill-opacity:1;fill-rule:nonzero;stroke:none"
             d="m 0,0 v -19.12 h 4.508 c 3.429,0 5.051,1.718 5.051,4.961 v 9.201 C 9.559,-1.708 8.026,0 4.418,0 Z m 0,7.847 h 3.607 c 3.337,0 4.869,1.714 4.869,4.961 v 7.483 c 0,3.339 -1.532,4.962 -4.961,4.962 H 0 Z M -10.283,33.642 H 4.601 c 10.279,0 13.708,-4.783 13.708,-13.44 V 13.98 c 0,-5.14 -1.896,-8.387 -6.136,-9.741 5.143,-1.171 7.668,-4.6 7.668,-10.187 v -8.122 c 0,-8.658 -3.878,-13.433 -14.161,-13.433 h -15.963 z" /></g><g
           transform="translate(485.9775,670.4476)"
           id="g112"><path
             id="path114"
             style="fill:#ffffff;fill-opacity:1;fill-rule:nonzero;stroke:none"
             d="m 0,0 h 10.283 v -52.762 h 12.266 v -8.383 l -22.549,0 z" /></g><g
           transform="translate(513.2058,670.4476)"
           id="g116"><path
             id="path118"
             style="fill:#ffffff;fill-opacity:1;fill-rule:nonzero;stroke:none"
             d="M 0,0 H 24.531 V -8.389 H 10.283 v -17.495 h 10.191 v -8.297 H 10.283 v -18.581 h 14.248 v -8.383 l -24.531,0 z" /></g><g
           transform="translate(569.9695,628.6939)"
           id="g120"><path
             id="path122"
             style="fill:#ffffff;fill-opacity:1;fill-rule:nonzero;stroke:none"
             d="M 0,0 H 8.208 L 4.151,24.527 H 4.061 Z M -12.895,-19.392 -1.35,41.754 H 10.372 L 22.009,-19.392 H 11.455 L 9.561,-8.211 H -1.35 l -1.804,-11.181 z" /></g><g
           transform="translate(604.8629,647.7171)"
           id="g124"><path
             id="path126"
             style="fill:#ffffff;fill-opacity:1;fill-rule:nonzero;stroke:none"
             d="M 0,0 V -38.415 H -8.658 V 22.73 H 1.443 L 12.537,-12.351 V 22.73 h 8.568 v -61.145 h -9.018 z" /></g><g
           transform="translate(646.4289,617.686)"
           id="g128"><path
             id="path130"
             style="fill:#ffffff;fill-opacity:1;fill-rule:nonzero;stroke:none"
             d="M 0,0 C 4.24,0 5.861,2.529 5.861,6.225 V 38.239 C 5.861,41.847 4.24,44.372 0,44.372 H -4.329 V 0 Z M 16.141,36.346 V 8.032 c 0,-9.379 -3.876,-16.416 -14.88,-16.416 H -14.611 V 52.762 H 1.261 c 11.004,0 14.88,-6.947 14.88,-16.416" /></g><g
           transform="translate(212.5139,539.432)"
           id="g132"><path
             id="path134"
             style="fill:#ffffff;fill-opacity:1;fill-rule:nonzero;stroke:none"
             d="m 0,0 v 29.581 c 0,9.559 4.511,16.505 15.333,16.505 11.363,0 14.52,-6.314 14.52,-15.336 v -7.215 h -9.379 v 8.026 c 0,3.792 -1.265,5.957 -4.961,5.957 -3.698,0 -5.23,-2.618 -5.23,-6.315 V -1.628 c 0,-3.697 1.532,-6.308 5.23,-6.308 3.696,0 4.961,2.343 4.961,5.95 V 9.29 h 9.379 V -1.264 c 0,-8.748 -3.608,-15.241 -14.52,-15.241 C 4.511,-16.505 0,-9.469 0,0" /></g><g
           transform="translate(247.95,584.7971)"
           id="g136"><path
             id="path138"
             style="fill:#ffffff;fill-opacity:1;fill-rule:nonzero;stroke:none"
             d="m 0,0 h 10.283 v -52.765 h 12.266 v -8.383 l -22.549,0 z" /></g><g
           transform="translate(275.1757,584.7971)"
           id="g140"><path
             id="path142"
             style="fill:#ffffff;fill-opacity:1;fill-rule:nonzero;stroke:none"
             d="M 0,0 H 24.531 V -8.39 H 10.283 v -17.495 h 10.19 v -8.3 h -10.19 v -18.58 h 14.248 v -8.383 l -24.531,0 z" /></g><g
           transform="translate(316.4767,543.0399)"
           id="g144"><path
             id="path146"
             style="fill:#ffffff;fill-opacity:1;fill-rule:nonzero;stroke:none"
             d="M 0,0 H 8.205 L 4.147,24.53 H 4.058 Z M -12.898,-19.391 -1.353,41.757 H 10.369 L 22.002,-19.391 H 11.452 L 9.558,-8.211 H -1.353 l -1.804,-11.18 z" /></g><g
           transform="translate(351.367,562.0666)"
           id="g148"><path
             id="path150"
             style="fill:#ffffff;fill-opacity:1;fill-rule:nonzero;stroke:none"
             d="M 0,0 V -38.418 H -8.658 V 22.731 H 1.443 l 11.094,-35.085 v 35.085 h 8.568 v -61.149 h -9.019 z" /></g><g
           transform="translate(393.79,584.7971)"
           id="g152"><path
             id="path154"
             style="fill:#ffffff;fill-opacity:1;fill-rule:nonzero;stroke:none"
             d="M 0,0 H 24.531 V -8.39 H 10.283 v -17.495 h 10.191 v -8.3 H 10.283 v -18.58 h 14.248 v -8.383 l -24.531,0 z" /></g><g
           transform="translate(432.4729,562.0666)"
           id="g156"><path
             id="path158"
             style="fill:#ffffff;fill-opacity:1;fill-rule:nonzero;stroke:none"
             d="M 0,0 V -38.418 H -8.658 V 22.731 H 1.443 l 11.094,-35.085 v 35.085 h 8.568 v -61.149 h -9.018 z" /></g><g
           transform="translate(459.4275,584.7971)"
           id="g160"><path
             id="path162"
             style="fill:#ffffff;fill-opacity:1;fill-rule:nonzero;stroke:none"
             d="M 0,0 H 24.53 V -8.39 H 10.282 v -17.495 h 10.191 v -8.3 H 10.282 v -18.58 H 24.53 v -8.383 H 0 Z" /></g><g
           transform="translate(499.7351,576.4073)"
           id="g164"><path
             id="path166"
             style="fill:#ffffff;fill-opacity:1;fill-rule:nonzero;stroke:none"
             d="m 0,0 v -19.028 h 3.425 c 3.519,0 5.051,1.801 5.051,5.051 v 9.016 C 8.476,-1.622 6.944,0 3.425,0 Z M 0,-24.71 V -52.759 H -10.283 V 8.39 H 4.69 c 10.372,0 14.158,-5.146 14.158,-13.709 v -7.847 c 0,-6.582 -2.343,-10.465 -8.207,-11.818 l 9.83,-27.775 H 9.648 Z" /></g><g
           transform="translate(539.676,556.2947)"
           id="g168"><path
             id="path170"
             style="fill:#ffffff;fill-opacity:1;fill-rule:nonzero;stroke:none"
             d="M 0,0 H 14.612 V -32.646 H 7.215 v 6.672 c -1.35,-4.597 -4.236,-7.394 -9.83,-7.394 -8.837,0 -12.897,7.037 -12.897,16.505 v 29.582 c 0,9.558 4.601,16.505 15.422,16.505 11.362,0 14.702,-6.315 14.702,-15.337 V 8.479 H 5.233 v 6.219 c 0,3.793 -1.444,5.957 -5.14,5.957 -3.701,0 -5.322,-2.618 -5.322,-6.314 v -32.832 c 0,-3.696 1.532,-6.308 5.051,-6.308 3.335,0 5.05,1.89 5.05,5.861 v 10.823 l -4.872,0 z" /></g><g
           transform="translate(577.9096,546.9155)"
           id="g172"><path
             id="path174"
             style="fill:#ffffff;fill-opacity:1;fill-rule:nonzero;stroke:none"
             d="M 0,0 V -23.267 H -10.284 V 0 l -11.454,37.882 h 10.734 l 6.225,-23.184 h 0.089 l 6.222,23.184 h 9.83 z" /></g></g></g></g></svg>